\relax 
\providecommand\hyper@newdestlabel[2]{}
\providecommand\HyperFirstAtBeginDocument{\AtBeginDocument}
\HyperFirstAtBeginDocument{\ifx\hyper@anchor\@undefined
\global\let\oldcontentsline\contentsline
\gdef\contentsline#1#2#3#4{\oldcontentsline{#1}{#2}{#3}}
\global\let\oldnewlabel\newlabel
\gdef\newlabel#1#2{\newlabelxx{#1}#2}
\gdef\newlabelxx#1#2#3#4#5#6{\oldnewlabel{#1}{{#2}{#3}}}
\AtEndDocument{\ifx\hyper@anchor\@undefined
\let\contentsline\oldcontentsline
\let\newlabel\oldnewlabel
\fi}
\fi}
\global\let\hyper@last\relax 
\gdef\HyperFirstAtBeginDocument#1{#1}
\providecommand\HyField@AuxAddToFields[1]{}
\providecommand\HyField@AuxAddToCoFields[2]{}
\ttl@writefile{ptc}{\ttl@starttoc{default@1}}
\@writefile{toc}{\contentsline {section}{\numberline {1}Re-written}{2}{section.1}\protected@file@percent }
\@writefile{toc}{\contentsline {subsection}{\numberline {1.1}Leadership}{2}{subsection.1.1}\protected@file@percent }
\@writefile{toc}{\contentsline {subsection}{\numberline {1.2}Making Effective decisions}{2}{subsection.1.2}\protected@file@percent }
\@writefile{toc}{\contentsline {section}{\numberline {2}Old}{3}{section.2}\protected@file@percent }
\@writefile{toc}{\contentsline {subsection}{\numberline {2.1}Strategic Cluster - Setting Direction}{3}{subsection.2.1}\protected@file@percent }
\@writefile{toc}{\contentsline {subsubsection}{\numberline {2.1.1}Seeing the Big Picture}{3}{subsubsection.2.1.1}\protected@file@percent }
\@writefile{lof}{\contentsline {figure}{\numberline {1}{\ignorespaces Roeland (my Ph.D supervisor) and I at a prestigious conference in New Orleans, not looking at The Big Picture.}}{4}{figure.1}\protected@file@percent }
\newlabel{fig:nola}{{1}{4}{Roeland (my Ph.D supervisor) and I at a prestigious conference in New Orleans, not looking at The Big Picture}{figure.1}{}}
\@writefile{toc}{\contentsline {subsubsection}{\numberline {2.1.2}Changing and Improving}{4}{subsubsection.2.1.2}\protected@file@percent }
\@writefile{lof}{\contentsline {figure}{\numberline {2}{\ignorespaces Changing samples at the SLS}}{5}{figure.2}\protected@file@percent }
\newlabel{fig:sls}{{2}{5}{Changing samples at the SLS}{figure.2}{}}
\@writefile{toc}{\contentsline {subsubsection}{\numberline {2.1.3}Effective Decisions}{5}{subsubsection.2.1.3}\protected@file@percent }
\@writefile{lof}{\contentsline {figure}{\numberline {3}{\ignorespaces One, two, three, pull!}}{6}{figure.3}\protected@file@percent }
\newlabel{fig:phoenix}{{3}{6}{One, two, three, pull!}{figure.3}{}}
\@writefile{toc}{\contentsline {subsection}{\numberline {2.2}People Cluster - Engaging People}{6}{subsection.2.2}\protected@file@percent }
\@writefile{toc}{\contentsline {subsubsection}{\numberline {2.2.1}Leading and Communicating}{6}{subsubsection.2.2.1}\protected@file@percent }
\@writefile{lof}{\contentsline {figure}{\numberline {4}{\ignorespaces The Men's 1st VII, first runners-up at the UPOLO league finals 2018}}{7}{figure.4}\protected@file@percent }
\newlabel{fig:phoenix}{{4}{7}{The Men's 1st VII, first runners-up at the UPOLO league finals 2018}{figure.4}{}}
\@writefile{toc}{\contentsline {subsubsection}{\numberline {2.2.2}Collaborating and Partnering}{7}{subsubsection.2.2.2}\protected@file@percent }
\@writefile{lof}{\contentsline {figure}{\numberline {5}{\ignorespaces Summer in Beijing}}{8}{figure.5}\protected@file@percent }
\newlabel{fig:ioz}{{5}{8}{Summer in Beijing}{figure.5}{}}
\@writefile{toc}{\contentsline {subsubsection}{\numberline {2.2.3}Building Capability for All}{8}{subsubsection.2.2.3}\protected@file@percent }
\@writefile{lof}{\contentsline {figure}{\numberline {6}{\ignorespaces This figure shows spectroscopic data. The manual generation of this figure used to take approxmately 30 mins, now I can generate hundred of figures like this in an instant.}}{9}{figure.6}\protected@file@percent }
\newlabel{fig:ioz}{{6}{9}{This figure shows spectroscopic data. The manual generation of this figure used to take approxmately 30 mins, now I can generate hundred of figures like this in an instant}{figure.6}{}}
\@writefile{toc}{\contentsline {subsection}{\numberline {2.3}Performance Cluster - Delivering Results}{9}{subsection.2.3}\protected@file@percent }
\@writefile{toc}{\contentsline {subsubsection}{\numberline {2.3.1}Achieving Commercial Outcomes}{9}{subsubsection.2.3.1}\protected@file@percent }
\@writefile{lof}{\contentsline {figure}{\numberline {7}{\ignorespaces 5* Reviews}}{10}{figure.7}\protected@file@percent }
\newlabel{fig:tripadvisor}{{7}{10}{5* Reviews}{figure.7}{}}
\@writefile{toc}{\contentsline {subsubsection}{\numberline {2.3.2}Delivering Value for Money}{11}{subsubsection.2.3.2}\protected@file@percent }
\@writefile{lof}{\contentsline {figure}{\numberline {8}{\ignorespaces The ability to set up new scans without breaking a radiation interlock reduces scan time by approximately 30\%, and correspondingly increases output of an expensive service.}}{11}{figure.8}\protected@file@percent }
\newlabel{fig:tripadvisor}{{8}{11}{The ability to set up new scans without breaking a radiation interlock reduces scan time by approximately 30\%, and correspondingly increases output of an expensive service}{figure.8}{}}
\@writefile{toc}{\contentsline {subsubsection}{\numberline {2.3.3}Managing a Quality Service}{12}{subsubsection.2.3.3}\protected@file@percent }
\@writefile{lof}{\contentsline {figure}{\numberline {9}{\ignorespaces Happy students}}{12}{figure.9}\protected@file@percent }
\newlabel{fig:students}{{9}{12}{Happy students}{figure.9}{}}
\xwm@secstopagerange{{1}{2},{1}{2},{1}{2},{2}{3},{2}{3},{2}{3},{2}{4},{2}{5},{2}{5},{2}{5},{2}{6},{2}{8},{2}{9},{2}{9},{2}{11},{2}{12},{2}{12},{10000}{13}}
\@writefile{toc}{\contentsline {subsubsection}{\numberline {2.3.4}Delivering at pace}{13}{subsubsection.2.3.4}\protected@file@percent }
\@writefile{lof}{\contentsline {figure}{\numberline {10}{\ignorespaces My poster, with VR via Google Cardboard!}}{13}{figure.10}\protected@file@percent }
\newlabel{fig:sanfran}{{10}{13}{My poster, with VR via Google Cardboard!}{figure.10}{}}
\ttl@finishall
\newlabel{xwmlastpage}{{2.3.4}{13}{Delivering at pace\relax }{figure.10}{}}
